{ "height":10,
 "layers":[
        {
         "compression":"zlib",
         "data":"eJxjYBgFIwWYoGFc8tiAHRrGJQ8DAKLAAq0=",
         "encoding":"base64",
         "height":10,
         "name":"Water",
         "opacity":1,
         "type":"tilelayer",
         "visible":true,
         "width":15,
         "x":0,
         "y":0
        }, 
        {
         "compression":"zlib",
         "data":"eJyzZCAemAOxBRJ2pkAvKYASvY5A7ATEOiTq5cdiP7H6yNHLz0C+XnSgC8RmZOoFARMoJgfYQTEAZM8HJw==",
         "encoding":"base64",
         "height":10,
         "name":"Background",
         "opacity":1,
         "type":"tilelayer",
         "visible":true,
         "width":15,
         "x":0,
         "y":0
        }, 
        {
         "compression":"zlib",
         "data":"eJxjYBj8QJpMfRJALIXEliRRnwqUrwTE\/CTqI0Uvuj50vaxAzATFvGj6xKBYnAHiP0U0vTDMDcQCSHrR5eWx2AvTx49FrzyafnS9AKH9BVQ=",
         "encoding":"base64",
         "height":10,
         "name":"Floor",
         "opacity":1,
         "type":"tilelayer",
         "visible":true,
         "width":15,
         "x":0,
         "y":0
        }, 
        {
         "draworder":"topdown",
         "height":10,
         "name":"Collision",
         "objects":[
                {
                 "height":0,
                 "id":18,
                 "name":"Floor",
                 "polygon":[
                        {
                         "x":0,
                         "y":0
                        }, 
                        {
                         "x":32,
                         "y":0
                        }, 
                        {
                         "x":32,
                         "y":2.5
                        }, 
                        {
                         "x":0,
                         "y":2.5
                        }],
                 "rotation":0,
                 "type":"Collider",
                 "visible":true,
                 "width":0,
                 "x":112,
                 "y":96
                }, 
                {
                 "height":0,
                 "id":19,
                 "name":"Floor",
                 "polygon":[
                        {
                         "x":0,
                         "y":0
                        }, 
                        {
                         "x":32,
                         "y":0
                        }, 
                        {
                         "x":32,
                         "y":2.5
                        }, 
                        {
                         "x":0,
                         "y":2.5
                        }],
                 "rotation":0,
                 "type":"Collider",
                 "visible":true,
                 "width":0,
                 "x":128,
                 "y":80
                }, 
                {
                 "height":0,
                 "id":20,
                 "name":"Floor",
                 "polygon":[
                        {
                         "x":0,
                         "y":0
                        }, 
                        {
                         "x":32,
                         "y":0
                        }, 
                        {
                         "x":32,
                         "y":2.5
                        }, 
                        {
                         "x":0,
                         "y":2.5
                        }],
                 "rotation":0,
                 "type":"Collider",
                 "visible":true,
                 "width":0,
                 "x":144,
                 "y":64
                }, 
                {
                 "height":0,
                 "id":21,
                 "name":"Floor",
                 "polygon":[
                        {
                         "x":0,
                         "y":0
                        }, 
                        {
                         "x":32,
                         "y":0
                        }, 
                        {
                         "x":32,
                         "y":2.5
                        }, 
                        {
                         "x":0,
                         "y":2.5
                        }],
                 "rotation":0,
                 "type":"Collider",
                 "visible":true,
                 "width":0,
                 "x":160,
                 "y":48
                }, 
                {
                 "height":0,
                 "id":22,
                 "name":"Floor",
                 "polygon":[
                        {
                         "x":0,
                         "y":0
                        }, 
                        {
                         "x":16,
                         "y":0
                        }, 
                        {
                         "x":16,
                         "y":2.5
                        }, 
                        {
                         "x":0,
                         "y":2.5
                        }],
                 "rotation":0,
                 "type":"Collider",
                 "visible":true,
                 "width":0,
                 "x":176,
                 "y":32
                }, 
                {
                 "height":0,
                 "id":23,
                 "name":"Floor",
                 "polygon":[
                        {
                         "x":0,
                         "y":0
                        }, 
                        {
                         "x":64,
                         "y":0
                        }, 
                        {
                         "x":64,
                         "y":2.5
                        }, 
                        {
                         "x":0,
                         "y":2.5
                        }],
                 "rotation":0,
                 "type":"Collider",
                 "visible":true,
                 "width":0,
                 "x":0,
                 "y":112
                }, 
                {
                 "height":0,
                 "id":24,
                 "name":"Floor",
                 "polygon":[
                        {
                         "x":0,
                         "y":0
                        }, 
                        {
                         "x":96,
                         "y":0
                        }, 
                        {
                         "x":96,
                         "y":2.5
                        }, 
                        {
                         "x":0,
                         "y":2.5
                        }],
                 "rotation":0,
                 "type":"Collider",
                 "visible":true,
                 "width":0,
                 "x":96,
                 "y":112
                }, 
                {
                 "height":0,
                 "id":25,
                 "name":"Floor",
                 "polygon":[
                        {
                         "x":0,
                         "y":0
                        }, 
                        {
                         "x":31.6299516908213,
                         "y":0
                        }, 
                        {
                         "x":31.6299516908213,
                         "y":2.5
                        }, 
                        {
                         "x":0,
                         "y":2.5
                        }],
                 "rotation":0,
                 "type":"Collider",
                 "visible":true,
                 "width":0,
                 "x":208.022222222222,
                 "y":48
                }, 
                {
                 "height":0,
                 "id":27,
                 "name":"Rock",
                 "polygon":[
                        {
                         "x":0,
                         "y":0
                        }, 
                        {
                         "x":0,
                         "y":-45.28125
                        }, 
                        {
                         "x":-16,
                         "y":-45.28125
                        }, 
                        {
                         "x":-16,
                         "y":0
                        }],
                 "rotation":0,
                 "type":"Collider",
                 "visible":true,
                 "width":0,
                 "x":64,
                 "y":160
                }, 
                {
                 "height":0,
                 "id":29,
                 "name":"Rock",
                 "polygon":[
                        {
                         "x":0,
                         "y":0
                        }, 
                        {
                         "x":16,
                         "y":0
                        }, 
                        {
                         "x":16,
                         "y":45.375
                        }, 
                        {
                         "x":0,
                         "y":45.375
                        }],
                 "rotation":0,
                 "type":"Collider",
                 "visible":true,
                 "width":0,
                 "x":96,
                 "y":114.625
                }, 
                {
                 "height":0,
                 "id":31,
                 "name":"Rock",
                 "polygon":[
                        {
                         "x":0,
                         "y":0
                        }, 
                        {
                         "x":0,
                         "y":45.375
                        }, 
                        {
                         "x":-16,
                         "y":45.375
                        }, 
                        {
                         "x":-16,
                         "y":0
                        }],
                 "rotation":0,
                 "type":"Collider",
                 "visible":true,
                 "width":0,
                 "x":192,
                 "y":114.625
                }, 
                {
                 "height":0,
                 "id":36,
                 "name":"Rock",
                 "polygon":[
                        {
                         "x":0,
                         "y":0
                        }, 
                        {
                         "x":1.5,
                         "y":0
                        }, 
                        {
                         "x":1.5,
                         "y":109.447161835749
                        }, 
                        {
                         "x":0,
                         "y":109.447161835749
                        }],
                 "rotation":0,
                 "type":"Collider",
                 "visible":true,
                 "width":0,
                 "x":208,
                 "y":50.5528381642512
                }, 
                {
                 "height":0,
                 "id":38,
                 "name":"LeftExit",
                 "polygon":[
                        {
                         "x":0,
                         "y":0
                        }, 
                        {
                         "x":1,
                         "y":0
                        }, 
                        {
                         "x":1,
                         "y":80
                        }, 
                        {
                         "x":0,
                         "y":80
                        }],
                 "rotation":0,
                 "type":"Trigger",
                 "visible":true,
                 "width":0,
                 "x":0,
                 "y":32
                }, 
                {
                 "height":0,
                 "id":39,
                 "name":"Finish",
                 "polygon":[
                        {
                         "x":0,
                         "y":0
                        }, 
                        {
                         "x":1,
                         "y":0
                        }, 
                        {
                         "x":1,
                         "y":48
                        }, 
                        {
                         "x":0,
                         "y":48
                        }],
                 "rotation":0,
                 "type":"Trigger",
                 "visible":true,
                 "width":0,
                 "x":239,
                 "y":0
                }, 
                {
                 "height":0,
                 "id":44,
                 "name":"DieBlock",
                 "polygon":[
                        {
                         "x":0,
                         "y":0
                        }, 
                        {
                         "x":32,
                         "y":0
                        }, 
                        {
                         "x":32,
                         "y":16
                        }, 
                        {
                         "x":0,
                         "y":16
                        }],
                 "rotation":0,
                 "type":"Trigger",
                 "visible":true,
                 "width":0,
                 "x":64,
                 "y":144
                }, 
                {
                 "height":0,
                 "id":46,
                 "name":"DieBlock",
                 "polygon":[
                        {
                         "x":0,
                         "y":0
                        }, 
                        {
                         "x":16,
                         "y":0
                        }, 
                        {
                         "x":16,
                         "y":16
                        }, 
                        {
                         "x":0,
                         "y":16
                        }],
                 "rotation":0,
                 "type":"Trigger",
                 "visible":true,
                 "width":0,
                 "x":192,
                 "y":144
                }],
         "opacity":1,
         "type":"objectgroup",
         "visible":true,
         "width":15,
         "x":0,
         "y":0
        }],
 "nextobjectid":47,
 "orientation":"orthogonal",
 "renderorder":"left-up",
 "tileheight":16,
 "tilesets":[
        {
         "columns":10,
         "firstgid":1,
         "image":"Env_Tiles.png",
         "imageheight":112,
         "imagewidth":160,
         "margin":0,
         "name":"Env_Tiles",
         "spacing":0,
         "tilecount":70,
         "tileheight":16,
         "tilewidth":16
        }],
 "tilewidth":16,
 "version":1,
 "width":15
}